com/sysomos/user/authority/authorityService/AppTest.class
com/sysomos/user/authority/authorityService/AuthorityScoreServiceTest.class
com/sysomos/user/authority/authorityService/AuthorityScoreServiceTest$1.class
